[
    {
        "path": "404.html",
        "type": "file",
        "md5": "f093d9ac030f0e3cf6ca9ae3751bfadf"
    },
    {
        "path": "assets",
        "type": "directory",
        "md5": false
    },
    {
        "path": "assets/css",
        "type": "directory",
        "md5": false
    },
    {
        "path": "/assets/css/editor.css",
        "type": "file",
        "md5": "e5909a88ba1158a79ba2dbf82d6b2d86"
    },
    {
        "path": "/assets/css/main.css",
        "type": "file",
        "md5": "7a7dadbfd16bb2beab92c20a5b08f9ee"
    },
    {
        "path": "/assets/css/photoswipe.css",
        "type": "file",
        "md5": "357f87f4e9502a5318d89e8e76e0a344"
    },
    {
        "path": "/assets/css/style.css",
        "type": "file",
        "md5": "7f7c6eb4064ed2f73958ab4f809fef1a"
    },
    {
        "path": "assets/js",
        "type": "directory",
        "md5": false
    },
    {
        "path": "/assets/js/photoswipe-ui-default.min.js",
        "type": "file",
        "md5": "d067f0883540b1ddda0e2c9ad1b14260"
    },
    {
        "path": "/assets/js/photoswipe.min.js",
        "type": "file",
        "md5": "017385b552f7e0d979e2e2fe6f324015"
    },
    {
        "path": "/assets/js/scripts.js",
        "type": "file",
        "md5": "932f325ea2f7fb1467e84c97f137e0f9"
    },
    {
        "path": "/assets/js/scripts.min.js",
        "type": "file",
        "md5": "f4c4d35432d0e17d212f2fae4e0f8247"
    },
    {
        "path": "/assets/js/svg-fix.js",
        "type": "file",
        "md5": "7c0d2bb7276904b382e80bf2d85e8a96"
    },
    {
        "path": "/assets/js/svg-map.js",
        "type": "file",
        "md5": "350bb511eba46f390e88bbea74abb0ac"
    },
    {
        "path": "assets/svg",
        "type": "directory",
        "md5": false
    },
    {
        "path": "/assets/svg/gallery-icons-dark.svg",
        "type": "file",
        "md5": "452594838e74a3df91ad4a20cf53c831"
    },
    {
        "path": "/assets/svg/gallery-icons-light.svg",
        "type": "file",
        "md5": "ca77079e0fe8270a7447d7f1f5d543b0"
    },
    {
        "path": "/assets/svg/search.svg",
        "type": "file",
        "md5": "a5bb83b82b98f41b359f20dbf9db6e44"
    },
    {
        "path": "/assets/svg/svg-map.svg",
        "type": "file",
        "md5": "3c5bef20cd9e16841afe49cf089a6c20"
    },
    {
        "path": "authors",
        "type": "directory",
        "md5": false
    },
    {
        "path": "authors/dhv-muenchen",
        "type": "directory",
        "md5": false
    },
    {
        "path": "/authors/dhv-muenchen/index.html",
        "type": "file",
        "md5": "796bf1fd5c85b18ccec6b2a1b63d565b"
    },
    {
        "path": "authors/dhv-muenchen/seite",
        "type": "directory",
        "md5": false
    },
    {
        "path": "authors/dhv-muenchen/seite/2",
        "type": "directory",
        "md5": false
    },
    {
        "path": "/authors/dhv-muenchen/seite/2/index.html",
        "type": "file",
        "md5": "cd19d6496a5900f1227e117df2f9a91b"
    },
    {
        "path": "der-fall-andre-borchardt",
        "type": "directory",
        "md5": false
    },
    {
        "path": "/der-fall-andre-borchardt/index.html",
        "type": "file",
        "md5": "020f63bd0e5755213c82edadbd3a4bfd"
    },
    {
        "path": "ein-mahnmal-fuer-friedliche-polizeiarbeit",
        "type": "directory",
        "md5": false
    },
    {
        "path": "/ein-mahnmal-fuer-friedliche-polizeiarbeit/index.html",
        "type": "file",
        "md5": "67c37d7dcb9ca06550289467ebdad261"
    },
    {
        "path": "faq",
        "type": "directory",
        "md5": false
    },
    {
        "path": "/faq/index.html",
        "type": "file",
        "md5": "df0036d3dc72f41f3a4b1d65f280ed53"
    },
    {
        "path": "impressum",
        "type": "directory",
        "md5": false
    },
    {
        "path": "/impressum/index.html",
        "type": "file",
        "md5": "52ce118ca350cd191d7a30e3f14665b0"
    },
    {
        "path": "index.html",
        "type": "file",
        "md5": "ae2fabf651b69268b38625cb5957b2f3"
    },
    {
        "path": "media",
        "type": "directory",
        "md5": false
    },
    {
        "path": "media/posts",
        "type": "directory",
        "md5": false
    },
    {
        "path": "media/posts/1",
        "type": "directory",
        "md5": false
    },
    {
        "path": "/media/posts/1/BW_Pattern.jpg",
        "type": "file",
        "md5": "4bf1c1280f686d26ec5e73c4a8e9e37d"
    },
    {
        "path": "/media/posts/1/IMG_20190727_164301.jpg",
        "type": "file",
        "md5": "936e9749df2a230fa57e2a2b33905637"
    },
    {
        "path": "media/posts/1/responsive",
        "type": "directory",
        "md5": false
    },
    {
        "path": "/media/posts/1/responsive/BW_Pattern-2xl.jpg",
        "type": "file",
        "md5": "25f892521dba45e2299bd71618430cc0"
    },
    {
        "path": "/media/posts/1/responsive/BW_Pattern-lg.jpg",
        "type": "file",
        "md5": "ed96938cdace532785473b4d3baed2b2"
    },
    {
        "path": "/media/posts/1/responsive/BW_Pattern-md.jpg",
        "type": "file",
        "md5": "a9bfb43e474c956cfc977e5f921bc000"
    },
    {
        "path": "/media/posts/1/responsive/BW_Pattern-sm.jpg",
        "type": "file",
        "md5": "9a8a7bef7f1190b51f28b73f92be26ad"
    },
    {
        "path": "/media/posts/1/responsive/BW_Pattern-xl.jpg",
        "type": "file",
        "md5": "37299d03e0c041a969ed9cfdedfa8e8d"
    },
    {
        "path": "/media/posts/1/responsive/BW_Pattern-xs.jpg",
        "type": "file",
        "md5": "1bdd2ba0633302507855716c63ded3e3"
    },
    {
        "path": "/media/posts/1/responsive/IMG_20190727_164301-2xl.jpg",
        "type": "file",
        "md5": "b931779a4ced3b7f091bceff37e9f99b"
    },
    {
        "path": "/media/posts/1/responsive/IMG_20190727_164301-lg.jpg",
        "type": "file",
        "md5": "f3c53b93f4e9982de3c471d3e421c532"
    },
    {
        "path": "/media/posts/1/responsive/IMG_20190727_164301-md.jpg",
        "type": "file",
        "md5": "a751d7974ca09220ea36adefbff9447c"
    },
    {
        "path": "/media/posts/1/responsive/IMG_20190727_164301-sm.jpg",
        "type": "file",
        "md5": "19a3369dbcc7c0ec5caecdaf273685cc"
    },
    {
        "path": "/media/posts/1/responsive/IMG_20190727_164301-xl.jpg",
        "type": "file",
        "md5": "ecdd38ac5dfafb13fb3ae97e2c6c5761"
    },
    {
        "path": "/media/posts/1/responsive/IMG_20190727_164301-xs.jpg",
        "type": "file",
        "md5": "1b85dc18cab544583532aa7a7e71ca70"
    },
    {
        "path": "media/posts/3",
        "type": "directory",
        "md5": false
    },
    {
        "path": "/media/posts/3/IMG_20190727_164329.jpg",
        "type": "file",
        "md5": "0ed091c40bacd68d04cb89eaeeaa3993"
    },
    {
        "path": "media/posts/3/gallery",
        "type": "directory",
        "md5": false
    },
    {
        "path": "/media/posts/3/gallery/Bildschirmfoto-2021-06-21-um-21.04.40-thumbnail.png",
        "type": "file",
        "md5": "d417238f16863f4722d9ff331414ee29"
    },
    {
        "path": "/media/posts/3/gallery/Bildschirmfoto-2021-06-21-um-21.04.40.png",
        "type": "file",
        "md5": "e17290677f772830f7ea6f76c5baa04f"
    },
    {
        "path": "/media/posts/3/gallery/IMAGE-2021-06-21-205220-thumbnail.jpg",
        "type": "file",
        "md5": "a23a914c898abde7d21286ae48d818d7"
    },
    {
        "path": "/media/posts/3/gallery/IMAGE-2021-06-21-205220.jpg",
        "type": "file",
        "md5": "c4373a55aca9faf4dd4bcaf342dca2e9"
    },
    {
        "path": "/media/posts/3/gallery/IMG_20190727_164329-thumbnail.jpg",
        "type": "file",
        "md5": "fcab594f1c0da0f6217c817253fea0a6"
    },
    {
        "path": "/media/posts/3/gallery/IMG_20190727_164329.jpg",
        "type": "file",
        "md5": "0ed091c40bacd68d04cb89eaeeaa3993"
    },
    {
        "path": "/media/posts/3/gallery/photo_2021-06-21-21.00.37-thumbnail.jpeg",
        "type": "file",
        "md5": "01bf31076616065c2a985e97a5ccae81"
    },
    {
        "path": "/media/posts/3/gallery/photo_2021-06-21-21.00.37.jpeg",
        "type": "file",
        "md5": "ad9bd26bc659ab2af9657fe8b9679339"
    },
    {
        "path": "/media/posts/3/photo_2021-06-25-01.28.13.jpeg",
        "type": "file",
        "md5": "b8cd621fcc18d3c88775bca5c8eccd4f"
    },
    {
        "path": "media/posts/3/responsive",
        "type": "directory",
        "md5": false
    },
    {
        "path": "/media/posts/3/responsive/IMG_20190727_164329-2xl.jpg",
        "type": "file",
        "md5": "97e9b8067025f2128f3b1070f64734d1"
    },
    {
        "path": "/media/posts/3/responsive/IMG_20190727_164329-lg.jpg",
        "type": "file",
        "md5": "3a36051c77b391ebaf4c08152e146be9"
    },
    {
        "path": "/media/posts/3/responsive/IMG_20190727_164329-md.jpg",
        "type": "file",
        "md5": "2cd5dbd91f84a23124480e95c2573136"
    },
    {
        "path": "/media/posts/3/responsive/IMG_20190727_164329-sm.jpg",
        "type": "file",
        "md5": "725867a62af79007315934fcc541a993"
    },
    {
        "path": "/media/posts/3/responsive/IMG_20190727_164329-xl.jpg",
        "type": "file",
        "md5": "f6ac751d550ee8d5665b5a09e6f650e3"
    },
    {
        "path": "/media/posts/3/responsive/IMG_20190727_164329-xs.jpg",
        "type": "file",
        "md5": "ee85d0750861dca0c6942c4026b5cc26"
    },
    {
        "path": "/media/posts/3/responsive/photo_2021-06-25-01.28.13-2xl.jpeg",
        "type": "file",
        "md5": "3ab1fd861d2b91052c849c0edef5074b"
    },
    {
        "path": "/media/posts/3/responsive/photo_2021-06-25-01.28.13-lg.jpeg",
        "type": "file",
        "md5": "f20d975936ba242e79f4313bb5e93ee4"
    },
    {
        "path": "/media/posts/3/responsive/photo_2021-06-25-01.28.13-md.jpeg",
        "type": "file",
        "md5": "83d28f02eb1f80677c396abb98477ae1"
    },
    {
        "path": "/media/posts/3/responsive/photo_2021-06-25-01.28.13-sm.jpeg",
        "type": "file",
        "md5": "5c1c4e3aebbaa5806c304c1dc5a98ab8"
    },
    {
        "path": "/media/posts/3/responsive/photo_2021-06-25-01.28.13-xl.jpeg",
        "type": "file",
        "md5": "3ab1fd861d2b91052c849c0edef5074b"
    },
    {
        "path": "/media/posts/3/responsive/photo_2021-06-25-01.28.13-xs.jpeg",
        "type": "file",
        "md5": "df02581d941b55d3bc463576de34a203"
    },
    {
        "path": "media/posts/4",
        "type": "directory",
        "md5": false
    },
    {
        "path": "/media/posts/4/Andre-Borchardt-Grabstein-Web.png",
        "type": "file",
        "md5": "5615875cf1bb7b81752dcbb51fdeb89c"
    },
    {
        "path": "/media/posts/4/Bildschirmfoto-2021-06-21-um-21.03.54.png",
        "type": "file",
        "md5": "ab98750b25d020cadae44654c8030423"
    },
    {
        "path": "/media/posts/4/IMG_1297.jpg",
        "type": "file",
        "md5": "cce09e8fe489de3157000b2a60bc0c1a"
    },
    {
        "path": "/media/posts/4/Thumbnail-Gedenkvideo.png",
        "type": "file",
        "md5": "768d2249e0cd8c51570db851619c45c2"
    },
    {
        "path": "media/posts/4/responsive",
        "type": "directory",
        "md5": false
    },
    {
        "path": "/media/posts/4/responsive/Andre-Borchardt-Grabstein-Web-2xl.png",
        "type": "file",
        "md5": "8e460d3f5cb5e2b0e847e3655472df26"
    },
    {
        "path": "/media/posts/4/responsive/Andre-Borchardt-Grabstein-Web-lg.png",
        "type": "file",
        "md5": "8e460d3f5cb5e2b0e847e3655472df26"
    },
    {
        "path": "/media/posts/4/responsive/Andre-Borchardt-Grabstein-Web-md.png",
        "type": "file",
        "md5": "8e460d3f5cb5e2b0e847e3655472df26"
    },
    {
        "path": "/media/posts/4/responsive/Andre-Borchardt-Grabstein-Web-sm.png",
        "type": "file",
        "md5": "4480d7714341c9f92672f3185bd26a8d"
    },
    {
        "path": "/media/posts/4/responsive/Andre-Borchardt-Grabstein-Web-xl.png",
        "type": "file",
        "md5": "8e460d3f5cb5e2b0e847e3655472df26"
    },
    {
        "path": "/media/posts/4/responsive/Andre-Borchardt-Grabstein-Web-xs.png",
        "type": "file",
        "md5": "1b6a4b33f778fad475da22752bca19cd"
    },
    {
        "path": "/media/posts/4/responsive/Bildschirmfoto-2021-06-21-um-21.03.54-2xl.png",
        "type": "file",
        "md5": "aa979fb64757f6409289cd48fcea8c5b"
    },
    {
        "path": "/media/posts/4/responsive/Bildschirmfoto-2021-06-21-um-21.03.54-lg.png",
        "type": "file",
        "md5": "bcdd901c95f3417b8d14b3596aa55c09"
    },
    {
        "path": "/media/posts/4/responsive/Bildschirmfoto-2021-06-21-um-21.03.54-md.png",
        "type": "file",
        "md5": "7bf2c81a50c3291eb5d368700c5f7a54"
    },
    {
        "path": "/media/posts/4/responsive/Bildschirmfoto-2021-06-21-um-21.03.54-sm.png",
        "type": "file",
        "md5": "7a1f32c50db6b00e187a996fdb02d468"
    },
    {
        "path": "/media/posts/4/responsive/Bildschirmfoto-2021-06-21-um-21.03.54-xl.png",
        "type": "file",
        "md5": "39b2974f7a1a95496744be8e4db1ba23"
    },
    {
        "path": "/media/posts/4/responsive/Bildschirmfoto-2021-06-21-um-21.03.54-xs.png",
        "type": "file",
        "md5": "29d97a25d14805c115008250bd89b677"
    },
    {
        "path": "/media/posts/4/responsive/IMG_1297-2xl.jpg",
        "type": "file",
        "md5": "9ba08642eb4b30856802ca5664412113"
    },
    {
        "path": "/media/posts/4/responsive/IMG_1297-lg.jpg",
        "type": "file",
        "md5": "a7344c9de47d6c5c77d0db673b69f53b"
    },
    {
        "path": "/media/posts/4/responsive/IMG_1297-md.jpg",
        "type": "file",
        "md5": "75815a8b2eafb08b0bd25a0b8ee69fbe"
    },
    {
        "path": "/media/posts/4/responsive/IMG_1297-sm.jpg",
        "type": "file",
        "md5": "59f129ed80f2a6a9807c9d50f88cc9bf"
    },
    {
        "path": "/media/posts/4/responsive/IMG_1297-xl.jpg",
        "type": "file",
        "md5": "dd27b41e398017e423b5f6b6076d1fbc"
    },
    {
        "path": "/media/posts/4/responsive/IMG_1297-xs.jpg",
        "type": "file",
        "md5": "ef8d1183f767e543e9d966335d224f09"
    },
    {
        "path": "/media/posts/4/responsive/Thumbnail-Gedenkvideo-2xl.png",
        "type": "file",
        "md5": "09407f9f017a331f7d4bc7904cae4fc4"
    },
    {
        "path": "/media/posts/4/responsive/Thumbnail-Gedenkvideo-lg.png",
        "type": "file",
        "md5": "2a8e79cb45ed2a46a620b25b428f130c"
    },
    {
        "path": "/media/posts/4/responsive/Thumbnail-Gedenkvideo-md.png",
        "type": "file",
        "md5": "e2a14220dcb010eb1065d95f730db659"
    },
    {
        "path": "/media/posts/4/responsive/Thumbnail-Gedenkvideo-sm.png",
        "type": "file",
        "md5": "9b61b6c88541eaa2fc6fc6ea6a7c38f2"
    },
    {
        "path": "/media/posts/4/responsive/Thumbnail-Gedenkvideo-xl.png",
        "type": "file",
        "md5": "9b0d0331ee07d9b8379ef805eb9b690e"
    },
    {
        "path": "/media/posts/4/responsive/Thumbnail-Gedenkvideo-xs.png",
        "type": "file",
        "md5": "b207b73757d753af542423e8c3aea5af"
    },
    {
        "path": "media/posts/5",
        "type": "directory",
        "md5": false
    },
    {
        "path": "/media/posts/5/FAQ.jpg",
        "type": "file",
        "md5": "970265b4b0df16d874e650e364544fcc"
    },
    {
        "path": "media/posts/5/responsive",
        "type": "directory",
        "md5": false
    },
    {
        "path": "/media/posts/5/responsive/FAQ-2xl.jpg",
        "type": "file",
        "md5": "376c3f6f62aa1fb35c6e68b2ea92128d"
    },
    {
        "path": "/media/posts/5/responsive/FAQ-lg.jpg",
        "type": "file",
        "md5": "3e53d273536110de388e560169675816"
    },
    {
        "path": "/media/posts/5/responsive/FAQ-md.jpg",
        "type": "file",
        "md5": "b37b1f439d71a3340f4821d9549b9c6e"
    },
    {
        "path": "/media/posts/5/responsive/FAQ-sm.jpg",
        "type": "file",
        "md5": "03100e6e213dc688af00ab68fb6d8bd8"
    },
    {
        "path": "/media/posts/5/responsive/FAQ-xl.jpg",
        "type": "file",
        "md5": "376c3f6f62aa1fb35c6e68b2ea92128d"
    },
    {
        "path": "/media/posts/5/responsive/FAQ-xs.jpg",
        "type": "file",
        "md5": "924f23679aef1be39a45388bd63f081d"
    },
    {
        "path": "media/posts/6",
        "type": "directory",
        "md5": false
    },
    {
        "path": "/media/posts/6/Darkblue-2.jpg",
        "type": "file",
        "md5": "30001c0e5e9122aa09440d02be4b9eec"
    },
    {
        "path": "/media/posts/6/og_logo_Muenchen_4C_Druck_RGB.png",
        "type": "file",
        "md5": "0b1a94c49bcee589f0199bd2985751bc"
    },
    {
        "path": "media/posts/6/responsive",
        "type": "directory",
        "md5": false
    },
    {
        "path": "/media/posts/6/responsive/Darkblue-2-2xl.jpg",
        "type": "file",
        "md5": "49de0f12808bf5598e035d7e6485f494"
    },
    {
        "path": "/media/posts/6/responsive/Darkblue-2-lg.jpg",
        "type": "file",
        "md5": "10d1e3a9f3b58ba37f068329798824d3"
    },
    {
        "path": "/media/posts/6/responsive/Darkblue-2-md.jpg",
        "type": "file",
        "md5": "53dcf1bc55eaa2dab39eec74dee46558"
    },
    {
        "path": "/media/posts/6/responsive/Darkblue-2-sm.jpg",
        "type": "file",
        "md5": "45bd3af82554dbec3e2fc1ddb1286b99"
    },
    {
        "path": "/media/posts/6/responsive/Darkblue-2-xl.jpg",
        "type": "file",
        "md5": "49de0f12808bf5598e035d7e6485f494"
    },
    {
        "path": "/media/posts/6/responsive/Darkblue-2-xs.jpg",
        "type": "file",
        "md5": "aa16835218da51bd83f0fa65143cd569"
    },
    {
        "path": "/media/posts/6/responsive/og_logo_Muenchen_4C_Druck_RGB-2xl.png",
        "type": "file",
        "md5": "7c2ee9b360068826b5c03f2f3d9f31ca"
    },
    {
        "path": "/media/posts/6/responsive/og_logo_Muenchen_4C_Druck_RGB-lg.png",
        "type": "file",
        "md5": "aa7c594439d3b0da6ffa04a17b2112af"
    },
    {
        "path": "/media/posts/6/responsive/og_logo_Muenchen_4C_Druck_RGB-md.png",
        "type": "file",
        "md5": "8adee9645ac1aa19894a4ea1c1a533a0"
    },
    {
        "path": "/media/posts/6/responsive/og_logo_Muenchen_4C_Druck_RGB-sm.png",
        "type": "file",
        "md5": "4000acf9502a89c0a947d79a23fdf167"
    },
    {
        "path": "/media/posts/6/responsive/og_logo_Muenchen_4C_Druck_RGB-xl.png",
        "type": "file",
        "md5": "1e43732bbf43b4af1d67a271cd5b4f22"
    },
    {
        "path": "/media/posts/6/responsive/og_logo_Muenchen_4C_Druck_RGB-xs.png",
        "type": "file",
        "md5": "2db1015099c930bd80354ed0ac5e7e64"
    },
    {
        "path": "media/website",
        "type": "directory",
        "md5": false
    },
    {
        "path": "/media/website/IMG_20190727_164301.jpg",
        "type": "file",
        "md5": "936e9749df2a230fa57e2a2b33905637"
    },
    {
        "path": "/media/website/Logo-Entwurf-mahnmal.org.png",
        "type": "file",
        "md5": "c0e2574658c5dbad0fe9746fb82236a9"
    },
    {
        "path": "/media/website/favicon.png",
        "type": "file",
        "md5": "1ff5ad4958224ec142a6c5e9afc3e810"
    },
    {
        "path": "media/website/responsive",
        "type": "directory",
        "md5": false
    },
    {
        "path": "/media/website/responsive/IMG_20190727_164301-2xl.jpg",
        "type": "file",
        "md5": "b931779a4ced3b7f091bceff37e9f99b"
    },
    {
        "path": "/media/website/responsive/IMG_20190727_164301-lg.jpg",
        "type": "file",
        "md5": "f3c53b93f4e9982de3c471d3e421c532"
    },
    {
        "path": "/media/website/responsive/IMG_20190727_164301-md.jpg",
        "type": "file",
        "md5": "a751d7974ca09220ea36adefbff9447c"
    },
    {
        "path": "/media/website/responsive/IMG_20190727_164301-sm.jpg",
        "type": "file",
        "md5": "19a3369dbcc7c0ec5caecdaf273685cc"
    },
    {
        "path": "/media/website/responsive/IMG_20190727_164301-xl.jpg",
        "type": "file",
        "md5": "ecdd38ac5dfafb13fb3ae97e2c6c5761"
    },
    {
        "path": "/media/website/responsive/IMG_20190727_164301-xs.jpg",
        "type": "file",
        "md5": "b20aad4ef55ab39a803d8ebca7038b6b"
    },
    {
        "path": "/media/website/responsive/Logo-Entwurf-mahnmal.org-2xl.png",
        "type": "file",
        "md5": "cf0b42a765b15375d7ce35bcccc13ded"
    },
    {
        "path": "/media/website/responsive/Logo-Entwurf-mahnmal.org-lg.png",
        "type": "file",
        "md5": "9e379acb49c0464883d0addca790bed2"
    },
    {
        "path": "/media/website/responsive/Logo-Entwurf-mahnmal.org-md.png",
        "type": "file",
        "md5": "8287c8eb755c8f1908805a35edf3e378"
    },
    {
        "path": "/media/website/responsive/Logo-Entwurf-mahnmal.org-sm.png",
        "type": "file",
        "md5": "8a41601af32f9c0309040a29399c9e4a"
    },
    {
        "path": "/media/website/responsive/Logo-Entwurf-mahnmal.org-xl.png",
        "type": "file",
        "md5": "cf0b42a765b15375d7ce35bcccc13ded"
    },
    {
        "path": "/media/website/responsive/Logo-Entwurf-mahnmal.org-xs.png",
        "type": "file",
        "md5": "f40efb4643209af8b8a85b54a979da7c"
    },
    {
        "path": "/media/website/responsive/favicon-2xl.png",
        "type": "file",
        "md5": "9d83118f55af029f8ce63d1e91bb6b90"
    },
    {
        "path": "/media/website/responsive/favicon-lg.png",
        "type": "file",
        "md5": "9d83118f55af029f8ce63d1e91bb6b90"
    },
    {
        "path": "/media/website/responsive/favicon-md.png",
        "type": "file",
        "md5": "9d83118f55af029f8ce63d1e91bb6b90"
    },
    {
        "path": "/media/website/responsive/favicon-sm.png",
        "type": "file",
        "md5": "9d83118f55af029f8ce63d1e91bb6b90"
    },
    {
        "path": "/media/website/responsive/favicon-xl.png",
        "type": "file",
        "md5": "9d83118f55af029f8ce63d1e91bb6b90"
    },
    {
        "path": "/media/website/responsive/favicon-xs.png",
        "type": "file",
        "md5": "9d83118f55af029f8ce63d1e91bb6b90"
    },
    {
        "path": "robots.txt",
        "type": "file",
        "md5": "afee9c723bf660c314ba5ada577e6646"
    },
    {
        "path": "search.html",
        "type": "file",
        "md5": "0d893293e5112021bd3b044a6cada9fd"
    },
    {
        "path": "sitemap.xml",
        "type": "file",
        "md5": "4a9cb03a369b6bf9548f14c42b6bbb19"
    },
    {
        "path": "sitemap.xsl",
        "type": "file",
        "md5": "51a7bcec43fa1ef0366100d5c2edbe75"
    },
    {
        "path": "tags",
        "type": "directory",
        "md5": false
    },
    {
        "path": "/tags/index.html",
        "type": "file",
        "md5": "dd5272ce9095fc9f357e1adce279a706"
    },
    {
        "path": "unterstuetzen",
        "type": "directory",
        "md5": false
    },
    {
        "path": "/unterstuetzen/index.html",
        "type": "file",
        "md5": "0e2405d5142d25d36fb624aa8b1cad29"
    },
    {
        "path": "was-bisher-geschah",
        "type": "directory",
        "md5": false
    },
    {
        "path": "/was-bisher-geschah/index.html",
        "type": "file",
        "md5": "9f83a8932dc0cbc9541ff2f4ea2de494"
    }
]